{
    "clients": [
        {
            "FIO": "ali muhamad abd",
            "phone": "89613092022",
            "mail": "mhamali@yandex.ru",
            "date": "12.12.2012"
        },
        {
            "FIO": "ali muhamad abd",
            "phone": "89613092022",
            "mail": "mhamali@yandex.ru",
            "date": "12.12.2012"
        },
        {
            "FIO": "ali muhamad abd",
            "phone": "89613092022",
            "mail": "mhamali@yandex.ru",
            "date": "12.12.2012"
        },
        {
            "FIO": "ali muhamad abd",
            "phone": "89613092022",
            "mail": "mhamali@yandex.ru",
            "date": "12.12.2012"
        },
        {
            "FIO": "ali muhamad abd",
            "phone": "89613092022",
            "mail": "mhamali@yandex.ru",
            "date": "12.12.2012"
        }
    ]
}