<svg width="186" height="8" viewBox="0 0 186 8" fill="none" xmlns="http://www.w3.org/2000/svg">
<path fill-rule="evenodd" clip-rule="evenodd" d="M186 4L178 8V0L186 4Z" fill="#2C2A29"/>
<path fill-rule="evenodd" clip-rule="evenodd" d="M0 4L8 8V0L0 4Z" fill="#2C2A29"/>
<path d="M8 4.5H178" stroke="#2C2A29"/>
</svg>
