<svg width="17" height="20" viewBox="0 0 17 20" fill="none" xmlns="http://www.w3.org/2000/svg">
<path fill-rule="evenodd" clip-rule="evenodd" d="M14.5574 9.44258C14.559 9.44239 14.5606 9.44219 14.5622 9.44219C14.6094 11.0818 15.2822 12.6341 16.4454 13.6905C16.8462 14.0553 17.0302 14.6144 16.923 15.1743C16.7847 15.8979 16.1422 16.3764 15.4606 16.3764H2.44063C1.79098 16.3764 1.17179 15.943 1.00216 15.2644C0.856553 14.6811 1.03658 14.0831 1.4422 13.7078C2.65904 12.5933 3.35265 10.9744 3.35265 9.25922V6.84298C3.35265 3.49237 5.85987 0.776367 8.9526 0.776367C9.13336 0.776367 9.31178 0.787634 9.48785 0.805725C9.14786 1.58744 8.9526 2.45675 8.9526 3.37637C8.9526 6.72158 11.4654 9.44298 14.5525 9.44298C14.5542 9.44298 14.5558 9.44278 14.5574 9.44258ZM11.8918 17.243C11.6135 18.724 10.4015 19.843 8.9526 19.843C7.50387 19.843 6.29185 18.724 6.01339 17.243H11.8918Z" fill="black"/>
<mask id="mask0" mask-type="alpha" maskUnits="userSpaceOnUse" x="0" y="0" width="17" height="20">
<path fill-rule="evenodd" clip-rule="evenodd" d="M14.5574 9.44258C14.559 9.44239 14.5606 9.44219 14.5622 9.44219C14.6094 11.0818 15.2822 12.6341 16.4454 13.6905C16.8462 14.0553 17.0302 14.6144 16.923 15.1743C16.7847 15.8979 16.1422 16.3764 15.4606 16.3764H2.44063C1.79098 16.3764 1.17179 15.943 1.00216 15.2644C0.856553 14.6811 1.03658 14.0831 1.4422 13.7078C2.65904 12.5933 3.35265 10.9744 3.35265 9.25922V6.84298C3.35265 3.49237 5.85987 0.776367 8.9526 0.776367C9.13336 0.776367 9.31178 0.787634 9.48785 0.805725C9.14786 1.58744 8.9526 2.45675 8.9526 3.37637C8.9526 6.72158 11.4654 9.44298 14.5525 9.44298C14.5542 9.44298 14.5558 9.44278 14.5574 9.44258ZM11.8918 17.243C11.6135 18.724 10.4015 19.843 8.9526 19.843C7.50387 19.843 6.29185 18.724 6.01339 17.243H11.8918Z" fill="white"/>
</mask>
<g mask="url(#mask0)">
<rect x="-118.399" y="-129.1" width="255.086" height="276.343" rx="1" fill="#6F8094"/>
</g>
</svg>
