<svg width="17" height="14" viewBox="0 0 17 14" fill="none" xmlns="http://www.w3.org/2000/svg">
<path fill-rule="evenodd" clip-rule="evenodd" d="M2.06666 1H5.80001V1.55815H2.06666V1ZM1.26666 2.1163H11.4C11.5475 2.1163 11.6667 2.24132 11.6667 2.39536V4.06977H14.3333C14.424 4.06977 14.5086 4.11804 14.5576 4.19787L16.9576 8.10485C16.9854 8.14975 17 8.20251 17 8.25581V11.3256C17 11.4799 16.8808 11.6046 16.7333 11.6046H15.3778C15.2505 12.3957 14.5916 13 13.8 13C13.0084 13 12.3495 12.3957 12.2222 11.6046H11.4041L11.4 11.6046H6.31115C6.18387 12.3957 5.52493 13 4.73335 13C3.94178 13 3.28283 12.3957 3.15556 11.6046H1.26666C1.11947 11.6046 1 11.4799 1 11.3256V2.39536C1 2.24132 1.11947 2.1163 1.26666 2.1163ZM3.15556 11.0465C3.28285 10.2555 3.94179 9.65117 4.73335 9.65117C5.52489 9.65117 6.18385 10.2555 6.31114 11.0465H11.1334V10.4884H6.60001V9.93023H11.1334V4.34883V3.79071H2.06666V3.23256H11.1334V2.67442H1.53334V9.93023H2.86666V10.4884H1.53334V11.0465H3.15556ZM11.6667 11.0465H12.2222C12.3495 10.2555 13.0085 9.65117 13.8 9.65117C14.5916 9.65117 15.2505 10.2555 15.3778 11.0465H16.4667V10.4884H15.6667V9.93023H16.4667V8.33786L16.4163 8.25578H12.4667C12.3192 8.25578 12.2001 8.13105 12.2001 7.97672V5.4651C12.2001 5.31106 12.3192 5.18604 12.4667 5.18604H14.5306L14.1877 4.62792H11.6667V11.0465ZM16.0734 7.69763L14.8667 5.73323V5.74419H12.7334V7.69763H16.0734ZM3.66669 11.3256C3.66669 11.9412 4.14507 12.4419 4.73335 12.4419C5.3216 12.4419 5.80001 11.9412 5.80001 11.3256C5.80001 10.71 5.3216 10.2093 4.73335 10.2093C4.1451 10.2093 3.66669 10.7099 3.66669 11.3256ZM12.7334 11.3256C12.7334 11.9412 13.2117 12.4419 13.8 12.4419C14.3883 12.4419 14.8667 11.9412 14.8667 11.3256C14.8667 10.71 14.3883 10.2093 13.8 10.2093C13.2118 10.2093 12.7334 10.7099 12.7334 11.3256ZM4.46666 11.0465H5.00001V11.6046H4.46666V11.0465ZM14.0667 11.0465H13.5334V11.6046H14.0667V11.0465ZM1.53334 1H1V1.55815H1.53334V1Z" fill="#31B339"/>
<path d="M5.80001 1H5.90001V0.9H5.80001V1ZM2.06666 1V0.9H1.96666V1H2.06666ZM5.80001 1.55815V1.65815H5.90001V1.55815H5.80001ZM2.06666 1.55815H1.96666V1.65815H2.06666V1.55815ZM11.6667 4.06977H11.5667V4.16977H11.6667V4.06977ZM14.5576 4.19787L14.6428 4.14553L14.6428 4.14551L14.5576 4.19787ZM16.9576 8.10485L16.8724 8.15719L16.8726 8.15743L16.9576 8.10485ZM17 8.25581L16.9 8.25575V8.25581H17ZM15.3778 11.6046V11.5046H15.2926L15.2791 11.5888L15.3778 11.6046ZM12.2222 11.6046L12.321 11.5887L12.3074 11.5046H12.2222V11.6046ZM11.4041 11.6046V11.5046L11.4033 11.5046L11.4041 11.6046ZM11.4 11.6046V11.7046L11.4008 11.7046L11.4 11.6046ZM6.31115 11.6046V11.5046H6.22595L6.21242 11.5888L6.31115 11.6046ZM3.15556 11.6046L3.25429 11.5888L3.24075 11.5046H3.15556V11.6046ZM3.15556 11.0465V11.1465H3.24076L3.25429 11.0624L3.15556 11.0465ZM6.31114 11.0465L6.21241 11.0624L6.22594 11.1465H6.31114V11.0465ZM11.1334 11.0465V11.1465H11.2334V11.0465H11.1334ZM11.1334 10.4884H11.2334V10.3884H11.1334V10.4884ZM6.60001 10.4884H6.50001V10.5884H6.60001V10.4884ZM6.60001 9.93023V9.83023H6.50001V9.93023H6.60001ZM11.1334 9.93023V10.0302H11.2334V9.93023H11.1334ZM11.1334 3.79071H11.2334V3.69071H11.1334V3.79071ZM2.06666 3.79071H1.96666V3.89071H2.06666V3.79071ZM2.06666 3.23256V3.13257H1.96666V3.23256H2.06666ZM11.1334 3.23256V3.33256H11.2334V3.23256H11.1334ZM11.1334 2.67442H11.2334V2.57442H11.1334V2.67442ZM1.53334 2.67442V2.57442H1.43334V2.67442H1.53334ZM1.53334 9.93023H1.43334V10.0302H1.53334V9.93023ZM2.86666 9.93023H2.96666V9.83023H2.86666V9.93023ZM2.86666 10.4884V10.5884H2.96666V10.4884H2.86666ZM1.53334 10.4884V10.3884H1.43334V10.4884H1.53334ZM1.53334 11.0465H1.43334V11.1465H1.53334V11.0465ZM12.2222 11.0465V11.1465H12.3074L12.321 11.0624L12.2222 11.0465ZM11.6667 11.0465H11.5667V11.1465H11.6667V11.0465ZM15.3778 11.0465L15.2791 11.0624L15.2926 11.1465H15.3778V11.0465ZM16.4667 11.0465V11.1465H16.5667V11.0465H16.4667ZM16.4667 10.4884H16.5667V10.3884H16.4667V10.4884ZM15.6667 10.4884H15.5667V10.5884H15.6667V10.4884ZM15.6667 9.93023V9.83023H15.5667V9.93023H15.6667ZM16.4667 9.93023V10.0302H16.5667V9.93023H16.4667ZM16.4667 8.33786H16.5667V8.3096L16.5519 8.28552L16.4667 8.33786ZM16.4163 8.25578L16.5015 8.20344L16.4722 8.15578H16.4163V8.25578ZM14.5306 5.18604V5.28604H14.7094L14.6158 5.1337L14.5306 5.18604ZM14.1877 4.62792L14.273 4.57558L14.2437 4.52792H14.1877V4.62792ZM11.6667 4.62792V4.52792H11.5667V4.62792H11.6667ZM14.8667 5.73323L14.9519 5.68089L14.7667 5.37939V5.73323H14.8667ZM16.0734 7.69763V7.79763H16.2522L16.1586 7.64529L16.0734 7.69763ZM14.8667 5.74419V5.84419H14.9667V5.74419H14.8667ZM12.7334 5.74419V5.64419H12.6334V5.74419H12.7334ZM12.7334 7.69763H12.6334V7.79763H12.7334V7.69763ZM5.00001 11.0465H5.10001V10.9465H5.00001V11.0465ZM4.46666 11.0465V10.9465H4.36666V11.0465H4.46666ZM5.00001 11.6046V11.7046H5.10001V11.6046H5.00001ZM4.46666 11.6046H4.36666V11.7046H4.46666V11.6046ZM13.5334 11.0465V10.9465H13.4334V11.0465H13.5334ZM14.0667 11.0465H14.1667V10.9465H14.0667V11.0465ZM13.5334 11.6046H13.4334V11.7046H13.5334V11.6046ZM14.0667 11.6046V11.7046H14.1667V11.6046H14.0667ZM1 1V0.9H0.9V1H1ZM1.53334 1H1.63334V0.9H1.53334V1ZM1 1.55815H0.9V1.65815H1V1.55815ZM1.53334 1.55815V1.65815H1.63334V1.55815H1.53334ZM5.80001 0.9H2.06666V1.1H5.80001V0.9ZM5.90001 1.55815V1H5.70001V1.55815H5.90001ZM2.06666 1.65815H5.80001V1.45815H2.06666V1.65815ZM1.96666 1V1.55815H2.16666V1H1.96666ZM11.4 2.0163H1.26666V2.2163H11.4V2.0163ZM11.7667 2.39536C11.7667 2.1905 11.607 2.0163 11.4 2.0163V2.2163C11.488 2.2163 11.5667 2.29215 11.5667 2.39536H11.7667ZM11.7667 4.06977V2.39536H11.5667V4.06977H11.7667ZM14.3333 3.96977H11.6667V4.16977H14.3333V3.96977ZM14.6428 4.14551C14.5763 4.03727 14.4601 3.96977 14.3333 3.96977V4.16977C14.3879 4.16977 14.4408 4.19882 14.4724 4.25023L14.6428 4.14551ZM17.0428 8.05251L14.6428 4.14553L14.4724 4.25021L16.8724 8.15719L17.0428 8.05251ZM17.1 8.25587C17.1 8.18446 17.0805 8.11341 17.0427 8.05228L16.8726 8.15743C16.8903 8.1861 16.9 8.22055 16.9 8.25575L17.1 8.25587ZM17.1 11.3256V8.25581H16.9V11.3256H17.1ZM16.7333 11.7046C16.9403 11.7046 17.1 11.5308 17.1 11.3256H16.9C16.9 11.429 16.8213 11.5046 16.7333 11.5046V11.7046ZM15.3778 11.7046H16.7333V11.5046H15.3778V11.7046ZM13.8 13.1C14.6448 13.1 15.3422 12.4559 15.4766 11.6205L15.2791 11.5888C15.1589 12.3355 14.5384 12.9 13.8 12.9V13.1ZM12.1235 11.6205C12.2579 12.4558 12.9552 13.1 13.8 13.1V12.9C13.0617 12.9 12.4411 12.3355 12.321 11.5887L12.1235 11.6205ZM11.4041 11.7046H12.2222V11.5046H11.4041V11.7046ZM11.4008 11.7046L11.4049 11.7046L11.4033 11.5046L11.3992 11.5046L11.4008 11.7046ZM6.31115 11.7046H11.4V11.5046H6.31115V11.7046ZM4.73335 13.1C5.57814 13.1 6.27548 12.4559 6.40988 11.6205L6.21242 11.5888C6.09227 12.3355 5.47171 12.9 4.73335 12.9V13.1ZM3.05683 11.6205C3.19122 12.4559 3.88856 13.1 4.73335 13.1V12.9C3.99499 12.9 3.37443 12.3355 3.25429 11.5888L3.05683 11.6205ZM1.26666 11.7046H3.15556V11.5046H1.26666V11.7046ZM0.9 11.3256C0.9 11.5309 1.06007 11.7046 1.26666 11.7046V11.5046C1.17887 11.5046 1.1 11.4289 1.1 11.3256H0.9ZM0.9 2.39536V11.3256H1.1V2.39536H0.9ZM1.26666 2.0163C1.06001 2.0163 0.9 2.19043 0.9 2.39536H1.1C1.1 2.29222 1.17893 2.2163 1.26666 2.2163V2.0163ZM4.73335 9.55117C3.88857 9.55117 3.19124 10.1953 3.05683 11.0306L3.25429 11.0624C3.37445 10.3156 3.995 9.75117 4.73335 9.75117V9.55117ZM6.40987 11.0306C6.27545 10.1953 5.5781 9.55117 4.73335 9.55117V9.75117C5.47167 9.75117 6.09225 10.3156 6.21241 11.0624L6.40987 11.0306ZM11.1334 10.9465H6.31114V11.1465H11.1334V10.9465ZM11.0334 10.4884V11.0465H11.2334V10.4884H11.0334ZM6.60001 10.5884H11.1334V10.3884H6.60001V10.5884ZM6.50001 9.93023V10.4884H6.70001V9.93023H6.50001ZM11.1334 9.83023H6.60001V10.0302H11.1334V9.83023ZM11.0334 4.34883V9.93023H11.2334V4.34883H11.0334ZM11.0334 3.79071V4.34883H11.2334V3.79071H11.0334ZM2.06666 3.89071H11.1334V3.69071H2.06666V3.89071ZM1.96666 3.23256V3.79071H2.16666V3.23256H1.96666ZM11.1334 3.13257H2.06666V3.33256H11.1334V3.13257ZM11.0334 2.67442V3.23256H11.2334V2.67442H11.0334ZM1.53334 2.77442H11.1334V2.57442H1.53334V2.77442ZM1.63334 9.93023V2.67442H1.43334V9.93023H1.63334ZM2.86666 9.83023H1.53334V10.0302H2.86666V9.83023ZM2.96666 10.4884V9.93023H2.76666V10.4884H2.96666ZM1.53334 10.5884H2.86666V10.3884H1.53334V10.5884ZM1.63334 11.0465V10.4884H1.43334V11.0465H1.63334ZM3.15556 10.9465H1.53334V11.1465H3.15556V10.9465ZM12.2222 10.9465H11.6667V11.1465H12.2222V10.9465ZM13.8 9.55117C12.9553 9.55117 12.2579 10.1953 12.1235 11.0306L12.321 11.0624C12.4411 10.3156 13.0617 9.75117 13.8 9.75117V9.55117ZM15.4766 11.0306C15.3422 10.1953 14.6448 9.55117 13.8 9.55117V9.75117C14.5384 9.75117 15.1589 10.3157 15.2791 11.0624L15.4766 11.0306ZM16.4667 10.9465H15.3778V11.1465H16.4667V10.9465ZM16.3667 10.4884V11.0465H16.5667V10.4884H16.3667ZM15.6667 10.5884H16.4667V10.3884H15.6667V10.5884ZM15.5667 9.93023V10.4884H15.7667V9.93023H15.5667ZM16.4667 9.83023H15.6667V10.0302H16.4667V9.83023ZM16.3667 8.33786V9.93023H16.5667V8.33786H16.3667ZM16.3311 8.30812L16.3815 8.39021L16.5519 8.28552L16.5015 8.20344L16.3311 8.30812ZM12.4667 8.35578H16.4163V8.15578H12.4667V8.35578ZM12.1001 7.97672C12.1001 8.18194 12.2598 8.35578 12.4667 8.35578V8.15578C12.3787 8.15578 12.3001 8.08015 12.3001 7.97672H12.1001ZM12.1001 5.4651V7.97672H12.3001V5.4651H12.1001ZM12.4667 5.08604C12.2597 5.08604 12.1001 5.26024 12.1001 5.4651H12.3001C12.3001 5.36189 12.3788 5.28604 12.4667 5.28604V5.08604ZM14.5306 5.08604H12.4667V5.28604H14.5306V5.08604ZM14.1025 4.68026L14.4454 5.23838L14.6158 5.1337L14.273 4.57558L14.1025 4.68026ZM11.6667 4.72792H14.1877V4.52792H11.6667V4.72792ZM11.7667 11.0465V4.62792H11.5667V11.0465H11.7667ZM14.7815 5.78557L15.9882 7.74997L16.1586 7.64529L14.9519 5.68089L14.7815 5.78557ZM14.9667 5.74419V5.73323H14.7667V5.74419H14.9667ZM12.7334 5.84419H14.8667V5.64419H12.7334V5.84419ZM12.8334 7.69763V5.74419H12.6334V7.69763H12.8334ZM16.0734 7.59763H12.7334V7.79763H16.0734V7.59763ZM4.73335 12.3419C4.20453 12.3419 3.76669 11.8903 3.76669 11.3256H3.56669C3.56669 11.9921 4.0856 12.5419 4.73335 12.5419V12.3419ZM5.70001 11.3256C5.70001 11.8903 5.26214 12.3419 4.73335 12.3419V12.5419C5.38107 12.5419 5.90001 11.9921 5.90001 11.3256H5.70001ZM4.73335 10.3093C5.26214 10.3093 5.70001 10.7609 5.70001 11.3256H5.90001C5.90001 10.6591 5.38107 10.1093 4.73335 10.1093V10.3093ZM3.76669 11.3256C3.76669 10.7608 4.20456 10.3093 4.73335 10.3093V10.1093C4.08564 10.1093 3.56669 10.659 3.56669 11.3256H3.76669ZM13.8 12.3419C13.2712 12.3419 12.8334 11.8903 12.8334 11.3256H12.6334C12.6334 11.9921 13.1523 12.5419 13.8 12.5419V12.3419ZM14.7667 11.3256C14.7667 11.8903 14.3288 12.3419 13.8 12.3419V12.5419C14.4478 12.5419 14.9667 11.9921 14.9667 11.3256H14.7667ZM13.8 10.3093C14.3288 10.3093 14.7667 10.7609 14.7667 11.3256H14.9667C14.9667 10.6591 14.4478 10.1093 13.8 10.1093V10.3093ZM12.8334 11.3256C12.8334 10.7608 13.2712 10.3093 13.8 10.3093V10.1093C13.1523 10.1093 12.6334 10.659 12.6334 11.3256H12.8334ZM5.00001 10.9465H4.46666V11.1465H5.00001V10.9465ZM5.10001 11.6046V11.0465H4.90001V11.6046H5.10001ZM4.46666 11.7046H5.00001V11.5046H4.46666V11.7046ZM4.36666 11.0465V11.6046H4.56666V11.0465H4.36666ZM13.5334 11.1465H14.0667V10.9465H13.5334V11.1465ZM13.6334 11.6046V11.0465H13.4334V11.6046H13.6334ZM14.0667 11.5046H13.5334V11.7046H14.0667V11.5046ZM13.9667 11.0465V11.6046H14.1667V11.0465H13.9667ZM1 1.1H1.53334V0.9H1V1.1ZM1.1 1.55815V1H0.9V1.55815H1.1ZM1.53334 1.45815H1V1.65815H1.53334V1.45815ZM1.43334 1V1.55815H1.63334V1H1.43334Z" fill="#31B339"/>
</svg>
