<svg width="18" height="18" viewBox="0 0 18 18" fill="none" xmlns="http://www.w3.org/2000/svg">
<path d="M17.55 9C17.55 13.722 13.722 17.55 9 17.55C4.27797 17.55 0.45 13.722 0.45 9C0.45 4.27797 4.27797 0.45 9 0.45C13.722 0.45 17.55 4.27797 17.55 9Z" stroke="#31B339" stroke-width="0.9"/>
<path d="M13.8682 6.12564C13.6925 5.95812 13.4076 5.95812 13.2318 6.12564L7.84052 11.2646L5.76821 9.28926C5.59248 9.12175 5.30757 9.12176 5.13181 9.28926C4.95606 9.45676 4.95606 9.72833 5.13181 9.89585L7.52233 12.1744C7.698 12.3419 7.98312 12.3418 8.15872 12.1744L13.8682 6.73224C14.0439 6.56474 14.0439 6.29316 13.8682 6.12564Z" fill="#31B339" stroke="#31B339" stroke-width="0.4"/>
</svg>
