<svg width="20" height="20" viewBox="0 0 20 20" fill="none" xmlns="http://www.w3.org/2000/svg">
<rect opacity="0.01" width="20" height="20" fill="#D8D8D8"/>
<path fill-rule="evenodd" clip-rule="evenodd" d="M17.7241 4H2.27586C2.12359 4 2 4.12331 2 4.27586V16.4138C2 16.5663 2.12359 16.6897 2.27586 16.6897H17.7241C17.8764 16.6897 18 16.5663 18 16.4138V4.27586C18 4.12331 17.8764 4 17.7241 4ZM6.41379 7.03448C7.26097 7.03448 7.95007 7.72359 7.95007 8.57076C7.95007 9.41765 7.26097 10.1068 6.41379 10.1068C5.56662 10.1068 4.87752 9.41765 4.87752 8.57076C4.87752 7.72359 5.56662 7.03448 6.41379 7.03448ZM16.1583 12.2036C16.2706 12.3065 16.4452 12.2985 16.5481 12.1865C16.651 12.0742 16.6436 11.8996 16.531 11.797L13.2207 8.76248C13.1666 8.7131 13.0949 8.68855 13.0221 8.69021C12.949 8.69352 12.88 8.72579 12.8306 8.77986L10.1288 11.739L8.82041 10.4306C8.71724 10.3277 8.55228 10.3225 8.44303 10.4185L3.74869 14.5514C3.63421 14.6521 3.62317 14.8265 3.72386 14.941C3.77848 15.003 3.85462 15.0345 3.93103 15.0345C3.99586 15.0345 4.06097 15.0119 4.11338 14.9658L8.61352 11.0039L11.4552 13.8452C11.563 13.9531 11.7374 13.9531 11.8452 13.8452C11.9531 13.7374 11.9531 13.563 11.8452 13.4552L10.5192 12.1291L13.0519 9.35559L16.1583 12.2036Z" fill="white"/>
<mask id="mask3" mask-type="alpha" maskUnits="userSpaceOnUse" x="2" y="4" width="16" height="13">
<path fill-rule="evenodd" clip-rule="evenodd" d="M17.7241 4H2.27586C2.12359 4 2 4.12331 2 4.27586V16.4138C2 16.5663 2.12359 16.6897 2.27586 16.6897H17.7241C17.8764 16.6897 18 16.5663 18 16.4138V4.27586C18 4.12331 17.8764 4 17.7241 4ZM6.41379 7.03448C7.26097 7.03448 7.95007 7.72359 7.95007 8.57076C7.95007 9.41765 7.26097 10.1068 6.41379 10.1068C5.56662 10.1068 4.87752 9.41765 4.87752 8.57076C4.87752 7.72359 5.56662 7.03448 6.41379 7.03448ZM16.1583 12.2036C16.2706 12.3065 16.4452 12.2985 16.5481 12.1865C16.651 12.0742 16.6436 11.8996 16.531 11.797L13.2207 8.76248C13.1666 8.7131 13.0949 8.68855 13.0221 8.69021C12.949 8.69352 12.88 8.72579 12.8306 8.77986L10.1288 11.739L8.82041 10.4306C8.71724 10.3277 8.55228 10.3225 8.44303 10.4185L3.74869 14.5514C3.63421 14.6521 3.62317 14.8265 3.72386 14.941C3.77848 15.003 3.85462 15.0345 3.93103 15.0345C3.99586 15.0345 4.06097 15.0119 4.11338 14.9658L8.61352 11.0039L11.4552 13.8452C11.563 13.9531 11.7374 13.9531 11.8452 13.8452C11.9531 13.7374 11.9531 13.563 11.8452 13.4552L10.5192 12.1291L13.0519 9.35559L16.1583 12.2036Z" fill="white"/>
</mask>
<g mask="url(#mask3)">
<rect x="-83" y="-83" width="186" height="186" rx="1" fill="#6F8094"/>
</g>
</svg>
