<svg width="20" height="20" viewBox="0 0 20 20" fill="none" xmlns="http://www.w3.org/2000/svg">
<rect opacity="0.01" width="20" height="20" fill="#D8D8D8"/>
<path fill-rule="evenodd" clip-rule="evenodd" d="M9.84524 1L12.6277 2.61701L5.19538 6.92656L2.40919 5.30954L9.84524 1ZM10.5148 10.6087L11.3183 10.1419L17.75 6.41494V14.8062L10.5148 19V10.6087ZM17.2776 5.30954L14.071 3.47593L6.6387 7.78548L7.06277 8.00581L9.84524 9.61909L12.6128 8.01701L17.2776 5.30954ZM4.74528 10.183L6.077 10.8701V8.82739L9.1831 10.6237V18.9552L2 14.7913V6.45975L4.74528 8.04689V10.183Z" fill="#6F8094"/>
<mask id="mask24" mask-type="alpha" maskUnits="userSpaceOnUse" x="2" y="1" width="16" height="18">
<path fill-rule="evenodd" clip-rule="evenodd" d="M9.84524 1L12.6277 2.61701L5.19538 6.92656L2.40919 5.30954L9.84524 1ZM10.5148 10.6087L11.3183 10.1419L17.75 6.41494V14.8062L10.5148 19V10.6087ZM17.2776 5.30954L14.071 3.47593L6.6387 7.78548L7.06277 8.00581L9.84524 9.61909L12.6128 8.01701L17.2776 5.30954ZM4.74528 10.183L6.077 10.8701V8.82739L9.1831 10.6237V18.9552L2 14.7913V6.45975L4.74528 8.04689V10.183Z" fill="white"/>
</mask>
<g mask="url(#mask24)">
<rect x="-94.75" y="-94.625" width="209.25" height="209.25" rx="1" fill="#6F8094"/>
<rect x="-94.75" y="-94.625" width="209.25" height="209.25" rx="1" fill="#6F8094"/>
</g>
</svg>
