<svg width="20" height="20" viewBox="0 0 20 20" fill="none" xmlns="http://www.w3.org/2000/svg">
<rect opacity="0.01" width="20" height="20" fill="#D8D8D8"/>
<path fill-rule="evenodd" clip-rule="evenodd" d="M5.66071 6.72676H6.54536C6.81387 6.72676 7.03159 6.51419 7.03159 6.25163V3.47531C7.03159 3.21272 6.81387 3 6.54536 3H5.66071C5.39217 3 5.17448 3.21272 5.17448 3.47531V6.25163C5.17448 6.51419 5.39217 6.72676 5.66071 6.72676ZM15.7539 4.55885V6.25237C15.7539 7.01783 15.1188 7.63467 14.3361 7.63467H13.4418C12.659 7.63467 12.0155 7.01783 12.0155 6.25237V4.55277H7.98446V6.25237C7.98446 7.01783 7.34102 7.63467 6.55838 7.63467H5.66385C4.88118 7.63467 4.24617 7.01783 4.24617 6.25237V4.55885C3.56211 4.57901 3 5.1325 3 5.8128V15.7377C3 16.4308 3.57451 17 4.28333 17H15.7167C16.4244 17 17 16.4296 17 15.7377V5.8128C17 5.1325 16.4379 4.57901 15.7539 4.55885ZM15.3385 15.1196C15.3385 15.4192 15.0901 15.6622 14.7837 15.6622H5.19191C4.88547 15.6622 4.6371 15.4192 4.6371 15.1196V9.99307C4.6371 9.69343 4.88544 9.45043 5.19191 9.45043H14.7836C15.0901 9.45043 15.3384 9.69343 15.3384 9.99307L15.3385 15.1196ZM8.05772 10.7237C8.05772 10.5483 7.91225 10.4063 7.73275 10.4063H6.59871C6.41942 10.4063 6.27391 10.5483 6.27391 10.7237V11.8325C6.27391 12.0081 6.41942 12.1502 6.59871 12.1502H7.73275C7.91225 12.1502 8.05772 12.0081 8.05772 11.8325V10.7237ZM10.8918 10.7237C10.8918 10.5483 10.7463 10.4063 10.5672 10.4063H9.433C9.2537 10.4063 9.1082 10.5483 9.1082 10.7237V11.8325C9.1082 12.0081 9.2537 12.1502 9.433 12.1502H10.5672C10.7463 12.1502 10.8918 12.0081 10.8918 11.8325V10.7237ZM13.4013 10.4063C13.5806 10.4063 13.7261 10.5483 13.7261 10.7237V11.8325C13.7261 12.0081 13.5806 12.1502 13.4013 12.1502H12.2673C12.0878 12.1502 11.9423 12.0081 11.9423 11.8325V10.7237C11.9423 10.5483 12.0878 10.4063 12.2673 10.4063H13.4013ZM8.05772 13.4953C8.05772 13.3196 7.91225 13.1776 7.73275 13.1776H6.59871C6.41942 13.1776 6.27391 13.3196 6.27391 13.4953V14.6038C6.27391 14.7793 6.41942 14.9214 6.59871 14.9214H7.73275C7.91225 14.9214 8.05772 14.7793 8.05772 14.6038V13.4953ZM10.5672 13.1776C10.7463 13.1776 10.8918 13.3196 10.8918 13.4953V14.6038C10.8918 14.7793 10.7463 14.9214 10.5672 14.9214H9.433C9.2537 14.9214 9.1082 14.7793 9.1082 14.6038V13.4953C9.1082 13.3196 9.2537 13.1776 9.433 13.1776H10.5672ZM13.7261 13.4953C13.7261 13.3196 13.5806 13.1776 13.4014 13.1776H12.2673C12.0878 13.1776 11.9423 13.3196 11.9423 13.4953V14.6038C11.9423 14.7793 12.0878 14.9214 12.2673 14.9214H13.4014C13.5806 14.9214 13.7261 14.7793 13.7261 14.6038V13.4953ZM14.315 6.72676H13.4304C13.1619 6.72676 12.9442 6.51419 12.9442 6.25163V3.47531C12.9442 3.21272 13.1619 3 13.4304 3H14.315C14.5834 3 14.8011 3.21272 14.8011 3.47531V6.25163C14.8011 6.51419 14.5834 6.72676 14.315 6.72676Z" fill="black"/>
<mask id="mask25" mask-type="alpha" maskUnits="userSpaceOnUse" x="3" y="3" width="14" height="14">
<path fill-rule="evenodd" clip-rule="evenodd" d="M5.66071 6.72676H6.54536C6.81387 6.72676 7.03159 6.51419 7.03159 6.25163V3.47531C7.03159 3.21272 6.81387 3 6.54536 3H5.66071C5.39217 3 5.17448 3.21272 5.17448 3.47531V6.25163C5.17448 6.51419 5.39217 6.72676 5.66071 6.72676ZM15.7539 4.55885V6.25237C15.7539 7.01783 15.1188 7.63467 14.3361 7.63467H13.4418C12.659 7.63467 12.0155 7.01783 12.0155 6.25237V4.55277H7.98446V6.25237C7.98446 7.01783 7.34102 7.63467 6.55838 7.63467H5.66385C4.88118 7.63467 4.24617 7.01783 4.24617 6.25237V4.55885C3.56211 4.57901 3 5.1325 3 5.8128V15.7377C3 16.4308 3.57451 17 4.28333 17H15.7167C16.4244 17 17 16.4296 17 15.7377V5.8128C17 5.1325 16.4379 4.57901 15.7539 4.55885ZM15.3385 15.1196C15.3385 15.4192 15.0901 15.6622 14.7837 15.6622H5.19191C4.88547 15.6622 4.6371 15.4192 4.6371 15.1196V9.99307C4.6371 9.69343 4.88544 9.45043 5.19191 9.45043H14.7836C15.0901 9.45043 15.3384 9.69343 15.3384 9.99307L15.3385 15.1196ZM8.05772 10.7237C8.05772 10.5483 7.91225 10.4063 7.73275 10.4063H6.59871C6.41942 10.4063 6.27391 10.5483 6.27391 10.7237V11.8325C6.27391 12.0081 6.41942 12.1502 6.59871 12.1502H7.73275C7.91225 12.1502 8.05772 12.0081 8.05772 11.8325V10.7237ZM10.8918 10.7237C10.8918 10.5483 10.7463 10.4063 10.5672 10.4063H9.433C9.2537 10.4063 9.1082 10.5483 9.1082 10.7237V11.8325C9.1082 12.0081 9.2537 12.1502 9.433 12.1502H10.5672C10.7463 12.1502 10.8918 12.0081 10.8918 11.8325V10.7237ZM13.4013 10.4063C13.5806 10.4063 13.7261 10.5483 13.7261 10.7237V11.8325C13.7261 12.0081 13.5806 12.1502 13.4013 12.1502H12.2673C12.0878 12.1502 11.9423 12.0081 11.9423 11.8325V10.7237C11.9423 10.5483 12.0878 10.4063 12.2673 10.4063H13.4013ZM8.05772 13.4953C8.05772 13.3196 7.91225 13.1776 7.73275 13.1776H6.59871C6.41942 13.1776 6.27391 13.3196 6.27391 13.4953V14.6038C6.27391 14.7793 6.41942 14.9214 6.59871 14.9214H7.73275C7.91225 14.9214 8.05772 14.7793 8.05772 14.6038V13.4953ZM10.5672 13.1776C10.7463 13.1776 10.8918 13.3196 10.8918 13.4953V14.6038C10.8918 14.7793 10.7463 14.9214 10.5672 14.9214H9.433C9.2537 14.9214 9.1082 14.7793 9.1082 14.6038V13.4953C9.1082 13.3196 9.2537 13.1776 9.433 13.1776H10.5672ZM13.7261 13.4953C13.7261 13.3196 13.5806 13.1776 13.4014 13.1776H12.2673C12.0878 13.1776 11.9423 13.3196 11.9423 13.4953V14.6038C11.9423 14.7793 12.0878 14.9214 12.2673 14.9214H13.4014C13.5806 14.9214 13.7261 14.7793 13.7261 14.6038V13.4953ZM14.315 6.72676H13.4304C13.1619 6.72676 12.9442 6.51419 12.9442 6.25163V3.47531C12.9442 3.21272 13.1619 3 13.4304 3H14.315C14.5834 3 14.8011 3.21272 14.8011 3.47531V6.25163C14.8011 6.51419 14.5834 6.72676 14.315 6.72676Z" fill="white"/>
</mask>
<g mask="url(#mask26)">
<rect x="-83" y="-83" width="186" height="186" rx="1" fill="#6F8094"/>
</g>
</svg>
