<svg width="20" height="20" viewBox="0 0 20 20" fill="none" xmlns="http://www.w3.org/2000/svg">
<rect opacity="0.01" width="20" height="20" fill="#D8D8D8"/>
<path fill-rule="evenodd" clip-rule="evenodd" d="M17.4398 3C17.6239 3 17.7685 3.05418 17.8638 3.15917C17.9657 3.26754 18.0085 3.41993 17.9986 3.61635L17.9559 4.55443L17.9518 4.64114C17.9236 5.23845 17.8955 5.83282 17.8704 6.42719C17.8638 6.57281 17.8375 6.75907 17.6962 6.90469C17.6568 6.94533 17.6107 6.9792 17.5581 7.00968C17.4792 7.0537 17.4036 7.07402 17.328 7.07402C17.1472 7.07402 17.0289 6.9521 16.9434 6.86405L16.2236 6.12579L9.8596 12.6821C9.70511 12.8379 9.50459 12.926 9.28764 12.926C9.07069 12.926 8.86688 12.8379 8.71567 12.6821L6.18127 10.0711L3.52853 12.8041C3.37732 12.9598 3.1768 13.0479 2.95985 13.0479C2.7429 13.0479 2.53909 12.9598 2.38789 12.8041L2.23668 12.6483C1.92111 12.3232 1.92111 11.7983 2.23668 11.4731L5.61259 7.99855C5.7638 7.84277 5.96432 7.75472 6.18127 7.75472C6.39822 7.75472 6.60203 7.84277 6.75324 7.99855L9.28764 10.6096L14.9284 4.79487C14.7641 4.62893 14.5997 4.4596 14.4386 4.29028L14.2052 4.04644C14.1132 3.95162 13.9193 3.75181 14.0573 3.44364C14.0836 3.38268 14.1165 3.33188 14.1592 3.28786C14.2915 3.15153 14.4587 3.14252 14.583 3.13583L14.5898 3.13546C15.0566 3.11345 15.5226 3.09059 15.9885 3.06773C16.4545 3.04487 16.9204 3.02201 17.3872 3H17.4398ZM16.2236 7.52105L13.8338 9.98307V16.702C13.8338 16.8645 13.962 17 14.1231 17H16.1282C16.286 17 16.4175 16.8679 16.4175 16.702V7.70731C16.3722 7.66762 16.3347 7.63116 16.3039 7.60124L16.3039 7.60123C16.29 7.58774 16.2775 7.57559 16.2663 7.56507L16.2236 7.52105ZM10.2508 16.702V13.6202C10.3527 13.5525 10.448 13.4746 10.5368 13.3832L12.8345 11.016V16.702C12.8345 16.8679 12.703 17 12.5452 17H10.54C10.379 17 10.2508 16.8645 10.2508 16.702ZM6.66777 11.9676V16.702C6.66777 16.8645 6.79597 17 6.95704 17H8.96221C9.11999 17 9.25148 16.8679 9.25148 16.702V13.9149C8.79456 13.9047 8.36723 13.7184 8.04509 13.3865L6.66777 11.9676ZM3.08476 14.03V16.702C3.08476 16.8645 3.21296 17 3.37403 17H5.3792C5.53699 17 5.66847 16.8679 5.66847 16.702V12.0015L4.21226 13.5017C3.90327 13.8166 3.50881 13.9995 3.08476 14.03Z" fill="white"/>
<mask id="mask55" mask-type="alpha" maskUnits="userSpaceOnUse" x="2" y="3" width="16" height="14">
<path fill-rule="evenodd" clip-rule="evenodd" d="M17.4398 3C17.6239 3 17.7685 3.05418 17.8638 3.15917C17.9657 3.26754 18.0085 3.41993 17.9986 3.61635L17.9559 4.55443L17.9518 4.64114C17.9236 5.23845 17.8955 5.83282 17.8704 6.42719C17.8638 6.57281 17.8375 6.75907 17.6962 6.90469C17.6568 6.94533 17.6107 6.9792 17.5581 7.00968C17.4792 7.0537 17.4036 7.07402 17.328 7.07402C17.1472 7.07402 17.0289 6.9521 16.9434 6.86405L16.2236 6.12579L9.8596 12.6821C9.70511 12.8379 9.50459 12.926 9.28764 12.926C9.07069 12.926 8.86688 12.8379 8.71567 12.6821L6.18127 10.0711L3.52853 12.8041C3.37732 12.9598 3.1768 13.0479 2.95985 13.0479C2.7429 13.0479 2.53909 12.9598 2.38789 12.8041L2.23668 12.6483C1.92111 12.3232 1.92111 11.7983 2.23668 11.4731L5.61259 7.99855C5.7638 7.84277 5.96432 7.75472 6.18127 7.75472C6.39822 7.75472 6.60203 7.84277 6.75324 7.99855L9.28764 10.6096L14.9284 4.79487C14.7641 4.62893 14.5997 4.4596 14.4386 4.29028L14.2052 4.04644C14.1132 3.95162 13.9193 3.75181 14.0573 3.44364C14.0836 3.38268 14.1165 3.33188 14.1592 3.28786C14.2915 3.15153 14.4587 3.14252 14.583 3.13583L14.5898 3.13546C15.0566 3.11345 15.5226 3.09059 15.9885 3.06773C16.4545 3.04487 16.9204 3.02201 17.3872 3H17.4398ZM16.2236 7.52105L13.8338 9.98307V16.702C13.8338 16.8645 13.962 17 14.1231 17H16.1282C16.286 17 16.4175 16.8679 16.4175 16.702V7.70731C16.3722 7.66762 16.3347 7.63116 16.3039 7.60124L16.3039 7.60123C16.29 7.58774 16.2775 7.57559 16.2663 7.56507L16.2236 7.52105ZM10.2508 16.702V13.6202C10.3527 13.5525 10.448 13.4746 10.5368 13.3832L12.8345 11.016V16.702C12.8345 16.8679 12.703 17 12.5452 17H10.54C10.379 17 10.2508 16.8645 10.2508 16.702ZM6.66777 11.9676V16.702C6.66777 16.8645 6.79597 17 6.95704 17H8.96221C9.11999 17 9.25148 16.8679 9.25148 16.702V13.9149C8.79456 13.9047 8.36723 13.7184 8.04509 13.3865L6.66777 11.9676ZM3.08476 14.03V16.702C3.08476 16.8645 3.21296 17 3.37403 17H5.3792C5.53699 17 5.66847 16.8679 5.66847 16.702V12.0015L4.21226 13.5017C3.90327 13.8166 3.50881 13.9995 3.08476 14.03Z" fill="white"/>
</mask>
<g mask="url(#mask55)">
<rect x="-83" y="-83" width="186" height="186" rx="1" fill="#6F8094"/>
</g>
</svg>
